<?xml version="1.0" encoding="UTF-8"?>
<svg width="124px" height="101px" viewBox="0 0 124 101" version="1.1" xmlns="http://www.w3.org/2000/svg" xmlns:xlink="http://www.w3.org/1999/xlink">
    <!-- Generator: Sketch 47.1 (45422) - http://www.bohemiancoding.com/sketch -->
    <title>collaboration</title>
    <desc>Created with Sketch.</desc>
    <defs></defs>
    <g id="Landing-Page" stroke="none" stroke-width="1" fill="none" fill-rule="evenodd">
        <g id="1.1.BrightTree_LandingPage" transform="translate(-658.000000, -2024.000000)" fill-rule="nonzero" fill="#FFD500">
            <g id="section-3" transform="translate(0.000000, 1636.000000)">
                <g id="80:165" transform="translate(165.000000, 80.225989)">
                    <g id="collaboration" transform="translate(493.000000, 308.000000)">
                        <path d="M69.396063,21.4390244 C72.1787402,19.2439024 73.9850394,15.8292683 73.9850394,12.0243902 C73.9850394,5.41463415 68.5905512,0.0243902439 61.9755906,0.0243902439 C55.3606299,0.0243902439 49.9661417,5.41463415 49.9661417,12.0243902 C49.9661417,15.8536585 51.7724409,19.2439024 54.5795276,21.4390244 C46.0850394,24.7560976 39.9826772,33.6097561 39.9826772,44 L39.9826772,46 L83.9685039,46 L83.9685039,44 L83.9929134,44 C83.9929134,33.6097561 77.8905512,24.7560976 69.396063,21.4390244 Z M53.9937008,12.0243902 C53.9937008,7.6097561 57.5818898,4.02439024 62,4.02439024 C66.4181102,4.02439024 70.0062992,7.6097561 70.0062992,12.0243902 C70.0062992,16.4390244 66.4181102,20.0243902 62,20.0243902 C57.5818898,20.0243902 53.9937008,16.4390244 53.9937008,12.0243902 Z M44.107874,42 C45.0110236,31.9268293 52.7,24 62.0244094,24 C71.3488189,24 79.0133858,31.902439 79.9409449,42 L44.107874,42 Z" id="Shape"></path>
                        <path d="M29.3889764,75.4146341 C32.1716535,73.2195122 33.9779528,69.804878 33.9779528,66 C33.9779528,59.3902439 28.5834646,54 21.9685039,54 C15.3535433,54 9.95905512,59.3902439 9.95905512,66 C9.95905512,69.8292683 11.7653543,73.2195122 14.5724409,75.4146341 C6.1023622,78.7317073 0,87.5853659 0,97.9756098 L0,99.9756098 L43.9858268,99.9756098 L43.9858268,97.9756098 C43.9858268,87.5853659 37.8834646,78.7317073 29.3889764,75.4146341 Z M13.9866142,66 C13.9866142,61.5853659 17.5748031,58 21.9929134,58 C26.4110236,58 29.9992126,61.5853659 29.9992126,66 C29.9992126,70.4146341 26.4110236,74 21.9929134,74 C17.5748031,74 13.9866142,70.4146341 13.9866142,66 Z M4.1007874,95.9756098 C5.00393701,85.902439 12.6929134,77.9756098 22.0173228,77.9756098 C31.3417323,77.9756098 39.0062992,85.8780488 39.9338583,95.9756098 L4.1007874,95.9756098 Z" id="Shape"></path>
                        <path d="M109.40315,75.4146341 C112.185827,73.2195122 113.992126,69.804878 113.992126,66 C113.992126,59.3902439 108.597638,54 101.982677,54 C95.3677165,54 89.9732283,59.3902439 89.9732283,66 C89.9732283,69.8292683 91.7795276,73.2195122 94.5866142,75.4146341 C86.092126,78.7317073 79.9897638,87.5853659 79.9897638,97.9756098 L79.9897638,99.9756098 L124,99.9756098 L124,97.9756098 C124,87.5853659 117.897638,78.7317073 109.40315,75.4146341 Z M94.0007874,66 C94.0007874,61.5853659 97.5889764,58 102.007087,58 C106.425197,58 110.013386,61.5853659 110.013386,66 C110.013386,70.4146341 106.425197,74 102.007087,74 C97.5889764,74 94.0007874,70.4146341 94.0007874,66 Z M84.0905512,95.9756098 C84.9937008,85.902439 92.6826772,77.9756098 102.007087,77.9756098 C111.331496,77.9756098 118.996063,85.8780488 119.923622,95.9756098 L84.0905512,95.9756098 Z" id="Shape"></path>
                        <polygon id="Shape" points="64.0015748 71.1463415 64.0015748 50 59.9984252 50 59.9984252 71.1463415 44.5716535 86.5609756 47.4031496 89.3902439 62 74.804878 76.5968504 89.3902439 79.4283465 86.5609756"></polygon>
                    </g>
                </g>
            </g>
        </g>
    </g>
</svg>