<?xml version="1.0" encoding="UTF-8"?>
<svg width="100px" height="101px" viewBox="0 0 100 101" version="1.1" xmlns="http://www.w3.org/2000/svg" xmlns:xlink="http://www.w3.org/1999/xlink">
    <!-- Generator: Sketch 47.1 (45422) - http://www.bohemiancoding.com/sketch -->
    <title>Page 1</title>
    <desc>Created with Sketch.</desc>
    <defs></defs>
    <g id="Landing-Page" stroke="none" stroke-width="1" fill="none" fill-rule="evenodd">
        <g id="1.1.BrightTree_LandingPage" transform="translate(-1051.000000, -2024.000000)" fill="#FFD500">
            <g id="section-3" transform="translate(0.000000, 1636.000000)">
                <g id="80:165" transform="translate(165.000000, 80.225989)">
                    <g id="Page-1" transform="translate(886.000000, 308.000000)">
                        <path d="M63.1879883,92.9550195 L38.3438477,85.9804102 C38.1262695,85.919668 37.9016602,85.8886133 37.6764648,85.8886133 C37.568457,85.8886133 37.4602539,85.8956445 37.3526367,85.9100977 L23.9383789,87.6849023 L23.9383789,62.4606836 L47.2936523,58.837832 L70.1770508,64.5679102 L70.1770508,68.6059961 L69.9454102,68.6677148 L52.4010742,64.354043 C51.0768555,64.0296289 49.7399414,64.8382227 49.4143555,66.1620508 C49.3655273,66.3599023 49.3422852,66.5581445 49.3422852,66.7532617 C49.3420898,67.8630273 50.0959961,68.8720117 51.222168,69.1491602 L69.3819336,73.6143945 C69.6426758,73.6786523 69.9116211,73.6993555 70.1772461,73.6770898 L70.1774414,73.6770898 C70.1791992,73.6770898 70.1807617,73.6768945 70.1827148,73.6766992 C70.194043,73.6757227 70.2057617,73.6745508 70.2174805,73.6733789 L70.2180664,73.6733789 C70.2196289,73.6731836 70.2200195,73.6729883 70.2233398,73.672793 C70.2245117,73.672793 70.2264648,73.6733789 70.2282227,73.672207 C70.2297852,73.672207 70.231543,73.6720117 70.2333008,73.6720117 C70.2350586,73.6716211 70.2368164,73.6712305 70.2381836,73.6714258 C70.2399414,73.6712305 70.2413086,73.6710352 70.2428711,73.6708398 C70.2446289,73.6708398 70.2459961,73.6712305 70.2477539,73.6702539 C70.2493164,73.6702539 70.2518555,73.6702539 70.252832,73.6698633 C70.255957,73.6694727 70.2592773,73.6688867 70.2625977,73.6684961 C70.2639648,73.6671289 70.2655273,73.6681055 70.2674805,73.6679102 C70.269043,73.6675195 70.2706055,73.6673242 70.272168,73.6673242 C70.2735352,73.6669336 70.275293,73.6667383 70.2768555,73.6667383 C70.278418,73.6663477 70.2799805,73.6663477 70.2817383,73.665957 C70.2829102,73.665957 70.2850586,73.6657617 70.2866211,73.6653711 C70.2881836,73.6653711 70.2899414,73.6651758 70.2913086,73.6647852 C70.2928711,73.6643945 70.2944336,73.6641992 70.2959961,73.6641992 C70.2975586,73.6638086 70.2989258,73.6638086 70.3004883,73.6638086 C70.3024414,73.6636133 70.3038086,73.6636133 70.3051758,73.6630273 C70.3063477,73.6630273 70.3083008,73.6632227 70.309668,73.6624414 C70.3149414,73.6616602 70.3208008,73.6608789 70.3260742,73.6600977 C70.3274414,73.6600977 70.3291992,73.659707 70.3303711,73.6595117 C70.3321289,73.6593164 70.3334961,73.6589258 70.3350586,73.6587305 C70.3366211,73.6589258 70.3383789,73.6581445 70.3399414,73.6581445 C70.3416992,73.657168 70.3432617,73.6575586 70.3446289,73.6573633 C70.3477539,73.6577539 70.3477539,73.6567773 70.3493164,73.656582 C70.3504883,73.6561914 70.352832,73.6559961 70.3540039,73.6558008 C70.3557617,73.6561914 70.3573242,73.6554102 70.3588867,73.6552148 C70.4274414,73.6442773 70.4959961,73.6304102 70.5637695,73.6136133 L92.7081055,68.1825586 L94.6551758,75.6112695 L63.1879883,92.9550195 Z M19.0006836,95.0622461 L4.93779297,95.0622461 L4.93779297,62.8141992 L19.0006836,62.8141992 L19.0006836,90.5016992 L19.0006836,95.0622461 Z M99.919043,76.2192773 L96.8682617,64.5800195 C96.5264648,63.2757227 95.2030273,62.4864648 93.8918945,62.8077539 L75.1149414,67.4132227 L75.1149414,62.6411523 C75.1149414,61.5083398 74.3444336,60.5212305 73.2456055,60.2460352 L48.0084961,53.9266992 C47.6885742,53.8466211 47.355957,53.8313867 47.0301758,53.8817773 L21.2788086,57.8761133 L2.46884766,57.8761133 C1.10537109,57.8761133 9.765625e-05,58.9817773 9.765625e-05,60.3450586 L9.765625e-05,97.5311914 C9.765625e-05,98.8944727 1.10537109,99.9999414 2.46884766,99.9999414 L21.4694336,99.9999414 C22.8331055,99.9999414 23.9383789,98.8944727 23.9383789,97.5311914 L23.9383789,92.6655664 L37.4975586,90.8716211 L62.8266602,97.982168 C63.0458008,98.0436914 63.2704102,98.0741602 63.494043,98.0741602 C63.9073242,98.0741602 64.3176758,97.9702539 64.6860352,97.7675195 L98.7225586,79.0075586 C99.712793,78.4616602 100.205762,77.3130273 99.919043,76.2192773 L99.919043,76.2192773 Z" id="Fill-1"></path>
                        <path d="M59.9533008,4.8828125 C71.2116992,4.8828125 80.3710742,14.0421875 80.3710742,25.3005859 C80.3710742,36.5589844 71.2116992,45.7183594 59.9533008,45.7183594 C48.6949023,45.7183594 39.5355273,36.5589844 39.5355273,25.3005859 C39.5355273,14.0421875 48.6949023,4.8828125 59.9533008,4.8828125 M59.9533008,50.6011719 C73.904082,50.6011719 85.2538867,39.2513672 85.2538867,25.3005859 C85.2538867,11.3498047 73.904082,0 59.9533008,0 C46.0025195,0 34.6527148,11.3498047 34.6527148,25.3005859 C34.6527148,39.2513672 46.0025195,50.6011719 59.9533008,50.6011719" id="Fill-3"></path>
                        <path d="M54.6094922,30.6570117 C54.6094922,30.6570117 57.0370312,33.0214648 60.1897656,33.0214648 C61.8921094,33.0214648 63.4366406,32.138457 63.4366406,30.3101367 C63.4366406,26.5269336 52.7811719,26.9054492 52.7811719,20.1271289 C52.7811719,16.8798633 55.2085156,14.357793 58.7077344,13.7906055 L58.7077344,10.8269336 L61.4188672,10.8269336 L61.4188672,13.7273242 C65.0762891,14.0427539 66.9676953,16.0288867 66.9676953,16.0288867 L65.2022656,19.3388477 C65.2022656,19.3388477 63.0587109,17.3841602 60.2526563,17.3841602 C58.3610547,17.3841602 56.8794141,18.4878711 56.8794141,20.064043 C56.8794141,23.8156055 67.5040234,23.1536914 67.5040234,30.2154102 C67.5040234,33.4312305 65.2655469,36.1741992 61.4188672,36.6784961 L61.4188672,39.5788867 L58.7077344,39.5788867 L58.7077344,36.6784961 C54.6411328,36.2056445 52.4026562,33.7148242 52.4026562,33.7148242 L54.6094922,30.6570117 Z" id="Fill-5"></path>
                    </g>
                </g>
            </g>
        </g>
    </g>
</svg>